{
 "kind": "youtube#playlistItemListResponse",
 "etag": "\"XI7nbFXulYBIpL0ayR_gDh3eu1k/VKkRc0-RD7QBY7gYvRSjx5OSRqg\"",
 "pageInfo": {
  "totalResults": 20,
  "resultsPerPage": 50
 },
 "items": [
  {
   "kind": "youtube#playlistItem",
   "etag": "\"XI7nbFXulYBIpL0ayR_gDh3eu1k/79fLF-iTrXzIeD0cJqWCTT20FJ0\"",
   "id": "UExMWWdDQ1pCUFJYdmMyU0s0RkxZMTZKTnJJZ2lvSldjcS4yMDhBMkNBNjRDMjQxQTg1",
   "snippet": {
    "publishedAt": "2018-05-30T15:42:05.000Z",
    "channelId": "UCPqZCejv5zOfuMr3prALzVA",
    "title": "Harnessing private investment capital to accelerate and expand land conservation",
    "description": "Over the past century, the public sector was the predominant funder of land conservation projects, creating national parks, national forests and wildlife refuges in countries around the world. More recently, inventive conservation finance practitioners have discovered myriad ways to bring private capital to the effort – for example, funding for-profit mitigation banks and providing impact capital to fund the acquisition and stewardship of working forests and farmlands. The webinar explores several of these private and civic funding methods in depth.",
    "thumbnails": {
     "default": {
      "url": "https://i.ytimg.com/vi/C0_VXEeh-j4/default.jpg",
      "width": 120,
      "height": 90
     },
     "medium": {
      "url": "https://i.ytimg.com/vi/C0_VXEeh-j4/mqdefault.jpg",
      "width": 320,
      "height": 180
     },
     "high": {
      "url": "https://i.ytimg.com/vi/C0_VXEeh-j4/hqdefault.jpg",
      "width": 480,
      "height": 360
     },
     "standard": {
      "url": "https://i.ytimg.com/vi/C0_VXEeh-j4/sddefault.jpg",
      "width": 640,
      "height": 480
     },
     "maxres": {
      "url": "https://i.ytimg.com/vi/C0_VXEeh-j4/maxresdefault.jpg",
      "width": 1280,
      "height": 720
     }
    },
    "channelTitle": "Yale Center for Business and the Environment",
    "playlistId": "PLLYgCCZBPRXvc2SK4FLY16JNrIgioJWcq",
    "position": 0,
    "resourceId": {
     "kind": "youtube#video",
     "videoId": "C0_VXEeh-j4"
    }
   }
  },
  {
   "kind": "youtube#playlistItem",
   "etag": "\"XI7nbFXulYBIpL0ayR_gDh3eu1k/dF--65zAbbVTmvKZypvIxvNsvYg\"",
   "id": "UExMWWdDQ1pCUFJYdmMyU0s0RkxZMTZKTnJJZ2lvSldjcS41QTY1Q0UxMTVCODczNThE",
   "snippet": {
    "publishedAt": "2018-04-27T14:13:44.000Z",
    "channelId": "UCPqZCejv5zOfuMr3prALzVA",
    "title": "Can Investment in the U.S. Sustainable Agriculture Sector Drive Ecological Benefits?",
    "description": "Join Peter Stein - Managing Director at Lyme Timber - and David Nicola - Founder of Blackdirt Capital - as they discuss the current status of the growing U.S. Sustainable Agriculture Sector. The webinar will highlight current and prospective investment strategies, and outline the potential for ecological benefits within the sector.",
    "thumbnails": {
     "default": {
      "url": "https://i.ytimg.com/vi/xTf0HVcY6qY/default.jpg",
      "width": 120,
      "height": 90
     },
     "medium": {
      "url": "https://i.ytimg.com/vi/xTf0HVcY6qY/mqdefault.jpg",
      "width": 320,
      "height": 180
     },
     "high": {
      "url": "https://i.ytimg.com/vi/xTf0HVcY6qY/hqdefault.jpg",
      "width": 480,
      "height": 360
     },
     "standard": {
      "url": "https://i.ytimg.com/vi/xTf0HVcY6qY/sddefault.jpg",
      "width": 640,
      "height": 480
     },
     "maxres": {
      "url": "https://i.ytimg.com/vi/xTf0HVcY6qY/maxresdefault.jpg",
      "width": 1280,
      "height": 720
     }
    },
    "channelTitle": "Yale Center for Business and the Environment",
    "playlistId": "PLLYgCCZBPRXvc2SK4FLY16JNrIgioJWcq",
    "position": 1,
    "resourceId": {
     "kind": "youtube#video",
     "videoId": "xTf0HVcY6qY"
    }
   }
  },
  {
   "kind": "youtube#playlistItem",
   "etag": "\"XI7nbFXulYBIpL0ayR_gDh3eu1k/MX9gxpHupLc47MqXTOmDB_Il8Aw\"",
   "id": "UExMWWdDQ1pCUFJYdmMyU0s0RkxZMTZKTnJJZ2lvSldjcS45RTgxNDRBMzUwRjQ0MDhC",
   "snippet": {
    "publishedAt": "2018-04-28T12:26:39.000Z",
    "channelId": "UCPqZCejv5zOfuMr3prALzVA",
    "title": "Investing in Water through Working with Agricultural Communities in the West",
    "description": "Conscience Bay Company is a certified B-corp that invests in commercial real estate, agricultural land, and water assets with a mission to produce economic, social, and environmental returns. Mike Higuera, the Director of Resource Investments, will discuss the company’s strategy for investing in farms and ranches and advancing creative ways to meet increasing demands for water while protecting productive agricultural lands.",
    "thumbnails": {
     "default": {
      "url": "https://i.ytimg.com/vi/jQ7UIM34yAE/default.jpg",
      "width": 120,
      "height": 90
     },
     "medium": {
      "url": "https://i.ytimg.com/vi/jQ7UIM34yAE/mqdefault.jpg",
      "width": 320,
      "height": 180
     },
     "high": {
      "url": "https://i.ytimg.com/vi/jQ7UIM34yAE/hqdefault.jpg",
      "width": 480,
      "height": 360
     },
     "standard": {
      "url": "https://i.ytimg.com/vi/jQ7UIM34yAE/sddefault.jpg",
      "width": 640,
      "height": 480
     },
     "maxres": {
      "url": "https://i.ytimg.com/vi/jQ7UIM34yAE/maxresdefault.jpg",
      "width": 1280,
      "height": 720
     }
    },
    "channelTitle": "Yale Center for Business and the Environment",
    "playlistId": "PLLYgCCZBPRXvc2SK4FLY16JNrIgioJWcq",
    "position": 2,
    "resourceId": {
     "kind": "youtube#video",
     "videoId": "jQ7UIM34yAE"
    }
   }
  },
  {
   "kind": "youtube#playlistItem",
   "etag": "\"XI7nbFXulYBIpL0ayR_gDh3eu1k/1vF4PQUfiT61nAWjdiQ7kZoles8\"",
   "id": "UExMWWdDQ1pCUFJYdmMyU0s0RkxZMTZKTnJJZ2lvSldjcS5ENDU4Q0M4RDExNzM1Mjcy",
   "snippet": {
    "publishedAt": "2018-05-08T18:44:07.000Z",
    "channelId": "UCPqZCejv5zOfuMr3prALzVA",
    "title": "Financing Farm Renovation: Building Resilience Using a Blend of Capital",
    "description": "Elizabeth Teague will speak to Root Capital's experience designing loan products for the renovation (replanting) of smallholder coffee farms, with benefits for farmers and the agroforestry farms and broader landscapes in which they work. Root Capital invests in the growth of agricultural enterprises so they can transform rural communities. With growth, these enterprises become engines of impact that can raise incomes, create jobs, empower women and young people, sustain peace and preserve vulnerable ecosystems. Root Capital supplies these businesses with vital resources: access to capital, trade and technical partners, financial training and conservation practices. Root Capital works in hard-to-serve geographies where others don’t. To date, Root Capital has distributed $1.2 billion to improve the lives of six million people in farming communities.",
    "thumbnails": {
     "default": {
      "url": "https://i.ytimg.com/vi/QAEx546nuio/default.jpg",
      "width": 120,
      "height": 90
     },
     "medium": {
      "url": "https://i.ytimg.com/vi/QAEx546nuio/mqdefault.jpg",
      "width": 320,
      "height": 180
     },
     "high": {
      "url": "https://i.ytimg.com/vi/QAEx546nuio/hqdefault.jpg",
      "width": 480,
      "height": 360
     },
     "standard": {
      "url": "https://i.ytimg.com/vi/QAEx546nuio/sddefault.jpg",
      "width": 640,
      "height": 480
     },
     "maxres": {
      "url": "https://i.ytimg.com/vi/QAEx546nuio/maxresdefault.jpg",
      "width": 1280,
      "height": 720
     }
    },
    "channelTitle": "Yale Center for Business and the Environment",
    "playlistId": "PLLYgCCZBPRXvc2SK4FLY16JNrIgioJWcq",
    "position": 3,
    "resourceId": {
     "kind": "youtube#video",
     "videoId": "QAEx546nuio"
    }
   }
  },
  {
   "kind": "youtube#playlistItem",
   "etag": "\"XI7nbFXulYBIpL0ayR_gDh3eu1k/Q-o8-EzRKy44bm7is75SORBUlMw\"",
   "id": "UExMWWdDQ1pCUFJYdmMyU0s0RkxZMTZKTnJJZ2lvSldjcS5EQUE1NTFDRjcwMDg0NEMz",
   "snippet": {
    "publishedAt": "2017-11-22T03:10:55.000Z",
    "channelId": "UCPqZCejv5zOfuMr3prALzVA",
    "title": "Scaling Environmental Impact Bonds",
    "description": "Eric Letsinger (Founder and CEO of Quantified Ventures) will discuss how impact bonds can be used to address a multitude of environmental problems. The program will include a brief overview of how these bonds are structured. In addition, Eric will touch on Quantified Ventures’ DC Water project and dive into lessons learned and new environmental use cases including coastal restoration in Louisiana, reduced agricultural pollution, and reclaiming materials from vacant houses in Baltimore.",
    "thumbnails": {
     "default": {
      "url": "https://i.ytimg.com/vi/Qy6n1sG_CW0/default.jpg",
      "width": 120,
      "height": 90
     },
     "medium": {
      "url": "https://i.ytimg.com/vi/Qy6n1sG_CW0/mqdefault.jpg",
      "width": 320,
      "height": 180
     },
     "high": {
      "url": "https://i.ytimg.com/vi/Qy6n1sG_CW0/hqdefault.jpg",
      "width": 480,
      "height": 360
     },
     "standard": {
      "url": "https://i.ytimg.com/vi/Qy6n1sG_CW0/sddefault.jpg",
      "width": 640,
      "height": 480
     },
     "maxres": {
      "url": "https://i.ytimg.com/vi/Qy6n1sG_CW0/maxresdefault.jpg",
      "width": 1280,
      "height": 720
     }
    },
    "channelTitle": "Yale Center for Business and the Environment",
    "playlistId": "PLLYgCCZBPRXvc2SK4FLY16JNrIgioJWcq",
    "position": 4,
    "resourceId": {
     "kind": "youtube#video",
     "videoId": "Qy6n1sG_CW0"
    }
   }
  },
  {
   "kind": "youtube#playlistItem",
   "etag": "\"XI7nbFXulYBIpL0ayR_gDh3eu1k/1izWMp9dNhQ9jgT4w1IPQPKP-HY\"",
   "id": "UExMWWdDQ1pCUFJYdmMyU0s0RkxZMTZKTnJJZ2lvSldjcS41Mzk2QTAxMTkzNDk4MDhF",
   "snippet": {
    "publishedAt": "2017-05-04T19:30:46.000Z",
    "channelId": "UCPqZCejv5zOfuMr3prALzVA",
    "title": "Making Forest Carbon Offset Projects an Option for Family Forest Owners",
    "description": "Carbon markets are a promising mechanism to help finance sustainable forest management practices and conservation projects, yet transaction costs and market structure have limited improved forest management carbon offset projects to large scales. In this webinar, Brian Kittler, Director of the Western Regional Office at the Pinchot Institute for Conservation, will review lessons and insights from a recent project in the Pacific Northwest attempting to overcome transaction costs and scale the carbon market down for family forest owners.",
    "thumbnails": {
     "default": {
      "url": "https://i.ytimg.com/vi/UwRcmfRClBw/default.jpg",
      "width": 120,
      "height": 90
     },
     "medium": {
      "url": "https://i.ytimg.com/vi/UwRcmfRClBw/mqdefault.jpg",
      "width": 320,
      "height": 180
     },
     "high": {
      "url": "https://i.ytimg.com/vi/UwRcmfRClBw/hqdefault.jpg",
      "width": 480,
      "height": 360
     },
     "standard": {
      "url": "https://i.ytimg.com/vi/UwRcmfRClBw/sddefault.jpg",
      "width": 640,
      "height": 480
     },
     "maxres": {
      "url": "https://i.ytimg.com/vi/UwRcmfRClBw/maxresdefault.jpg",
      "width": 1280,
      "height": 720
     }
    },
    "channelTitle": "Yale Center for Business and the Environment",
    "playlistId": "PLLYgCCZBPRXvc2SK4FLY16JNrIgioJWcq",
    "position": 5,
    "resourceId": {
     "kind": "youtube#video",
     "videoId": "UwRcmfRClBw"
    }
   }
  },
  {
   "kind": "youtube#playlistItem",
   "etag": "\"XI7nbFXulYBIpL0ayR_gDh3eu1k/WcRdxE4B-kkB1GvFtVFCmLh5i0I\"",
   "id": "UExMWWdDQ1pCUFJYdmMyU0s0RkxZMTZKTnJJZ2lvSldjcS45ODRDNTg0QjA4NkFBNkQy",
   "snippet": {
    "publishedAt": "2017-05-04T19:24:34.000Z",
    "channelId": "UCPqZCejv5zOfuMr3prALzVA",
    "title": "More Nature, Better Health: Urban Forestry’s Reduction of Health Care Expenditures",
    "description": "A number of studies have illustrated that people are healthier in greener places. Contact with nature has been tied to reduced incidence of mortality and of a range of mental and physical diseases. Through this channel, greenspace also has an economic benefit – that of reducing healthcare expenditures. Kathryn Boyle (Project Manager, Kaiser Permanente) will discuss Kaiser Permanente’s efforts to improve community health outcomes by investing in access to nature. Dr. Stephen Van Den Eeden (Division of Research, Kaiser Permanente) and Dr. Matthew Browning (Assistant Professor, University of Illinois at Urbana-Champaign) will outline a recent study linking high-resolution satellite data on urban forests to individual-level health outcomes and costs, and will discuss the return on investment (in terms of reduced health care spending) expected from various investments in urban forestry. Their conversation will touch on how individual-level, geo-located health care cost data allows for these types of interventions and for these conclusions to be drawn.",
    "thumbnails": {
     "default": {
      "url": "https://i.ytimg.com/vi/A-EujI_VFfU/default.jpg",
      "width": 120,
      "height": 90
     },
     "medium": {
      "url": "https://i.ytimg.com/vi/A-EujI_VFfU/mqdefault.jpg",
      "width": 320,
      "height": 180
     },
     "high": {
      "url": "https://i.ytimg.com/vi/A-EujI_VFfU/hqdefault.jpg",
      "width": 480,
      "height": 360
     },
     "standard": {
      "url": "https://i.ytimg.com/vi/A-EujI_VFfU/sddefault.jpg",
      "width": 640,
      "height": 480
     },
     "maxres": {
      "url": "https://i.ytimg.com/vi/A-EujI_VFfU/maxresdefault.jpg",
      "width": 1280,
      "height": 720
     }
    },
    "channelTitle": "Yale Center for Business and the Environment",
    "playlistId": "PLLYgCCZBPRXvc2SK4FLY16JNrIgioJWcq",
    "position": 6,
    "resourceId": {
     "kind": "youtube#video",
     "videoId": "A-EujI_VFfU"
    }
   }
  },
  {
   "kind": "youtube#playlistItem",
   "etag": "\"XI7nbFXulYBIpL0ayR_gDh3eu1k/Ju72nbJ2H7DJ2hgKJEfYUtw1iKw\"",
   "id": "UExMWWdDQ1pCUFJYdmMyU0s0RkxZMTZKTnJJZ2lvSldjcS4zMDg5MkQ5MEVDMEM1NTg2",
   "snippet": {
    "publishedAt": "2017-05-04T19:28:49.000Z",
    "channelId": "UCPqZCejv5zOfuMr3prALzVA",
    "title": "Restore the Earth’s EcoMetrics(TM) Model: Unlocking the Business Case for Environmental Restoration",
    "description": "To enable funds to flow into landscape scale restoration projects, the impact must be proven and the value of ecosystem restoration must be measured in financial terms, making a solid business case for cleaner air, cleaner water, and environmental resiliency. In this webinar, Taylor Marshall will present the Restore the Earth Foundation's EcoMetrics(TM) Model, which uses in-depth analytics to measure the full value for each environmental, social, and economics outcome produced by ecosystem restoration, and reports on those outcomes in monetary terms to partners and funders. This model has unlocked the business case for restoration, allowing corporations to amplify funding for large scale restoration projects - enhancing the impact and scale of restoration, while better communicating the inter-connectedness of environmental health and socio-economic well-being.",
    "thumbnails": {
     "default": {
      "url": "https://i.ytimg.com/vi/FoijG5MPpWg/default.jpg",
      "width": 120,
      "height": 90
     },
     "medium": {
      "url": "https://i.ytimg.com/vi/FoijG5MPpWg/mqdefault.jpg",
      "width": 320,
      "height": 180
     },
     "high": {
      "url": "https://i.ytimg.com/vi/FoijG5MPpWg/hqdefault.jpg",
      "width": 480,
      "height": 360
     },
     "standard": {
      "url": "https://i.ytimg.com/vi/FoijG5MPpWg/sddefault.jpg",
      "width": 640,
      "height": 480
     },
     "maxres": {
      "url": "https://i.ytimg.com/vi/FoijG5MPpWg/maxresdefault.jpg",
      "width": 1280,
      "height": 720
     }
    },
    "channelTitle": "Yale Center for Business and the Environment",
    "playlistId": "PLLYgCCZBPRXvc2SK4FLY16JNrIgioJWcq",
    "position": 7,
    "resourceId": {
     "kind": "youtube#video",
     "videoId": "FoijG5MPpWg"
    }
   }
  },
  {
   "kind": "youtube#playlistItem",
   "etag": "\"XI7nbFXulYBIpL0ayR_gDh3eu1k/yXHwyhRcSR8cjMG51UGpXPj-Hjo\"",
   "id": "UExMWWdDQ1pCUFJYdmMyU0s0RkxZMTZKTnJJZ2lvSldjcS5EMEEwRUY5M0RDRTU3NDJC",
   "snippet": {
    "publishedAt": "2017-03-15T14:38:39.000Z",
    "channelId": "UCPqZCejv5zOfuMr3prALzVA",
    "title": "The Economic Costs of Emerging Infectious Diseases and the Value of Land",
    "description": "Allison White (Research Scientist, EcoHealth Alliance) and Dr. Yasha Feferholtz (Economist, EcoHealth Alliance) discuss the One Health model that connects human, ecosystem, and wildlife health. The program includes a focus on the costs of disrupting ecosystem services and the economic model they’ve developed for analyzing the total welfare impacts of land use decisions (e.g. development vs. conservation). Using an illustrative case study from Malaysia, they discuss the disease regulation benefits of intact forest ecosystems as well as how to prioritize conservation investments based on the generation of maximal social returns. \n\nAll images courtesy of EcoHealth Alliance (http://www.ecohealthalliance.org)",
    "thumbnails": {
     "default": {
      "url": "https://i.ytimg.com/vi/PMSYdVj0FDw/default.jpg",
      "width": 120,
      "height": 90
     },
     "medium": {
      "url": "https://i.ytimg.com/vi/PMSYdVj0FDw/mqdefault.jpg",
      "width": 320,
      "height": 180
     },
     "high": {
      "url": "https://i.ytimg.com/vi/PMSYdVj0FDw/hqdefault.jpg",
      "width": 480,
      "height": 360
     },
     "standard": {
      "url": "https://i.ytimg.com/vi/PMSYdVj0FDw/sddefault.jpg",
      "width": 640,
      "height": 480
     },
     "maxres": {
      "url": "https://i.ytimg.com/vi/PMSYdVj0FDw/maxresdefault.jpg",
      "width": 1280,
      "height": 720
     }
    },
    "channelTitle": "Yale Center for Business and the Environment",
    "playlistId": "PLLYgCCZBPRXvc2SK4FLY16JNrIgioJWcq",
    "position": 8,
    "resourceId": {
     "kind": "youtube#video",
     "videoId": "PMSYdVj0FDw"
    }
   }
  },
  {
   "kind": "youtube#playlistItem",
   "etag": "\"XI7nbFXulYBIpL0ayR_gDh3eu1k/Cn5UfByx74UwKGZMpChjPM0rpbI\"",
   "id": "UExMWWdDQ1pCUFJYdmMyU0s0RkxZMTZKTnJJZ2lvSldjcS40NzZCMERDMjVEN0RFRThB",
   "snippet": {
    "publishedAt": "2016-11-14T17:37:38.000Z",
    "channelId": "UCPqZCejv5zOfuMr3prALzVA",
    "title": "Investing in Sustainable Agriculture: Generating Returns from Environmentally-Responsible Management",
    "description": "In this webinar, Lucyann Murray (Yale MBA/Master of Forestry, ‘17) presents key findings from the report she recently co-authored on sustainable farmland investment strategies. She discusses methods for generating market-level returns as well as next steps for the industry and explores specific case studies featured in the report relating to holistic grazing, water infrastructure, and organic grain crops. Stephen Hohenrieder (Food System and Regenerative Agriculture Investor) discusses the practical ways in which regenerative land management and production practices have been implemented at Hana Ranch and Green Spring Farms. Stephen speaks to how consumers create market opportunities and how infrastructure serves as a gating factor in connecting producers and consumers.",
    "thumbnails": {
     "default": {
      "url": "https://i.ytimg.com/vi/vcOPlWf0vIE/default.jpg",
      "width": 120,
      "height": 90
     },
     "medium": {
      "url": "https://i.ytimg.com/vi/vcOPlWf0vIE/mqdefault.jpg",
      "width": 320,
      "height": 180
     },
     "high": {
      "url": "https://i.ytimg.com/vi/vcOPlWf0vIE/hqdefault.jpg",
      "width": 480,
      "height": 360
     },
     "standard": {
      "url": "https://i.ytimg.com/vi/vcOPlWf0vIE/sddefault.jpg",
      "width": 640,
      "height": 480
     },
     "maxres": {
      "url": "https://i.ytimg.com/vi/vcOPlWf0vIE/maxresdefault.jpg",
      "width": 1280,
      "height": 720
     }
    },
    "channelTitle": "Yale Center for Business and the Environment",
    "playlistId": "PLLYgCCZBPRXvc2SK4FLY16JNrIgioJWcq",
    "position": 9,
    "resourceId": {
     "kind": "youtube#video",
     "videoId": "vcOPlWf0vIE"
    }
   }
  },
  {
   "kind": "youtube#playlistItem",
   "etag": "\"XI7nbFXulYBIpL0ayR_gDh3eu1k/y-7-37p21moYni6pkSMPg6OXehI\"",
   "id": "UExMWWdDQ1pCUFJYdmMyU0s0RkxZMTZKTnJJZ2lvSldjcS5GNjNDRDREMDQxOThCMDQ2",
   "snippet": {
    "publishedAt": "2016-10-12T23:06:42.000Z",
    "channelId": "UCPqZCejv5zOfuMr3prALzVA",
    "title": "New Approaches to Philanthropy: How Collaborative PRIs are Solving Water Challenges",
    "description": "Susannah Harris (MEM/MBA, '16 and Senior Consultant for Deloitte Consulting's Social Impact Practice) and Allison Khoe (MEM '17) present key findings from their recent 2016 report on the need for capital in the water sector and how foundations can address water issues through program-related investments (PRIs) - a practice that is in its nascent stages. In incorporating PRIs into a foundation’s water-related strategy, opportunities exist to invest in water trading programs, product research and development, social enterprises, social impact bonds, and note programs. Jon M. Jensen, Executive Director of the Park Foundation, explores recent investment trends among foundations focused on water issues, and how these will impact future directions for water-related PRIs.",
    "thumbnails": {
     "default": {
      "url": "https://i.ytimg.com/vi/vAnJVKnGDB4/default.jpg",
      "width": 120,
      "height": 90
     },
     "medium": {
      "url": "https://i.ytimg.com/vi/vAnJVKnGDB4/mqdefault.jpg",
      "width": 320,
      "height": 180
     },
     "high": {
      "url": "https://i.ytimg.com/vi/vAnJVKnGDB4/hqdefault.jpg",
      "width": 480,
      "height": 360
     },
     "standard": {
      "url": "https://i.ytimg.com/vi/vAnJVKnGDB4/sddefault.jpg",
      "width": 640,
      "height": 480
     },
     "maxres": {
      "url": "https://i.ytimg.com/vi/vAnJVKnGDB4/maxresdefault.jpg",
      "width": 1280,
      "height": 720
     }
    },
    "channelTitle": "Yale Center for Business and the Environment",
    "playlistId": "PLLYgCCZBPRXvc2SK4FLY16JNrIgioJWcq",
    "position": 10,
    "resourceId": {
     "kind": "youtube#video",
     "videoId": "vAnJVKnGDB4"
    }
   }
  },
  {
   "kind": "youtube#playlistItem",
   "etag": "\"XI7nbFXulYBIpL0ayR_gDh3eu1k/C93GAhmV7jkhL3PcffWwpeR7nrI\"",
   "id": "UExMWWdDQ1pCUFJYdmMyU0s0RkxZMTZKTnJJZ2lvSldjcS45NDk1REZENzhEMzU5MDQz",
   "snippet": {
    "publishedAt": "2016-09-20T14:12:45.000Z",
    "channelId": "UCPqZCejv5zOfuMr3prALzVA",
    "title": "Protecting Marine Reserves: Public-Private Partnerships in Cuba’s Gardens of the Queen",
    "description": "Filippo Invernizzi (Co-Owner of Avalon Cuban Fishing Centers) and Dan Whittle (Senior Director of EDF’s Cuba Program) discuss the conservation finance model that has resulted in the successful protection of Jardines de La Reina, the “Crown Jewel of Cuba’s Coral Reefs”, for over two decades. Contextualized by the legal and political situation in Cuba, this webinar will offer key insights related to Avalon’s unique business model, investment structure, and the role of private-public partnerships for financing the conservation of these pristine ecosystems. Given its outstanding success, this model is being now implemented in six other marine reserves in Cuba, as well as in Ecuador and Brazil.",
    "thumbnails": {
     "default": {
      "url": "https://i.ytimg.com/vi/DKty78Qmg5o/default.jpg",
      "width": 120,
      "height": 90
     },
     "medium": {
      "url": "https://i.ytimg.com/vi/DKty78Qmg5o/mqdefault.jpg",
      "width": 320,
      "height": 180
     },
     "high": {
      "url": "https://i.ytimg.com/vi/DKty78Qmg5o/hqdefault.jpg",
      "width": 480,
      "height": 360
     },
     "standard": {
      "url": "https://i.ytimg.com/vi/DKty78Qmg5o/sddefault.jpg",
      "width": 640,
      "height": 480
     },
     "maxres": {
      "url": "https://i.ytimg.com/vi/DKty78Qmg5o/maxresdefault.jpg",
      "width": 1280,
      "height": 720
     }
    },
    "channelTitle": "Yale Center for Business and the Environment",
    "playlistId": "PLLYgCCZBPRXvc2SK4FLY16JNrIgioJWcq",
    "position": 11,
    "resourceId": {
     "kind": "youtube#video",
     "videoId": "DKty78Qmg5o"
    }
   }
  },
  {
   "kind": "youtube#playlistItem",
   "etag": "\"XI7nbFXulYBIpL0ayR_gDh3eu1k/1Qd7534gDlB2R4vW5_akH2-mtsM\"",
   "id": "UExMWWdDQ1pCUFJYdmMyU0s0RkxZMTZKTnJJZ2lvSldjcS5DQUNERDQ2NkIzRUQxNTY1",
   "snippet": {
    "publishedAt": "2016-04-29T12:01:04.000Z",
    "channelId": "UCPqZCejv5zOfuMr3prALzVA",
    "title": "Paying for Success  Financing Forest Restoration in the West",
    "description": "Zachary Knight, Co-Founder and Managing Partner of Blue Forest Conservation (BFC), showcases the Forest Resilience Bond, an innovative financial vehicle that invests in forest health to alleviate drought and wildfire.",
    "thumbnails": {
     "default": {
      "url": "https://i.ytimg.com/vi/yWSolJ75_Ek/default.jpg",
      "width": 120,
      "height": 90
     },
     "medium": {
      "url": "https://i.ytimg.com/vi/yWSolJ75_Ek/mqdefault.jpg",
      "width": 320,
      "height": 180
     },
     "high": {
      "url": "https://i.ytimg.com/vi/yWSolJ75_Ek/hqdefault.jpg",
      "width": 480,
      "height": 360
     },
     "standard": {
      "url": "https://i.ytimg.com/vi/yWSolJ75_Ek/sddefault.jpg",
      "width": 640,
      "height": 480
     },
     "maxres": {
      "url": "https://i.ytimg.com/vi/yWSolJ75_Ek/maxresdefault.jpg",
      "width": 1280,
      "height": 720
     }
    },
    "channelTitle": "Yale Center for Business and the Environment",
    "playlistId": "PLLYgCCZBPRXvc2SK4FLY16JNrIgioJWcq",
    "position": 12,
    "resourceId": {
     "kind": "youtube#video",
     "videoId": "yWSolJ75_Ek"
    }
   }
  },
  {
   "kind": "youtube#playlistItem",
   "etag": "\"XI7nbFXulYBIpL0ayR_gDh3eu1k/xA0B4LfOpIUpoWZM2aZzrsH2-R0\"",
   "id": "UExMWWdDQ1pCUFJYdmMyU0s0RkxZMTZKTnJJZ2lvSldjcS41MzJCQjBCNDIyRkJDN0VD",
   "snippet": {
    "publishedAt": "2016-04-21T19:31:28.000Z",
    "channelId": "UCPqZCejv5zOfuMr3prALzVA",
    "title": "Seychelles Debt-for-Nature Swap",
    "description": "In this webinar, Honorable Didier Dogley of the Republic of Seychelles and Robert Weary of NatureVest speak about the recently completed Seychelles Debt-for-Nature Swap deal.",
    "thumbnails": {
     "default": {
      "url": "https://i.ytimg.com/vi/Pn8yc_2TZJY/default.jpg",
      "width": 120,
      "height": 90
     },
     "medium": {
      "url": "https://i.ytimg.com/vi/Pn8yc_2TZJY/mqdefault.jpg",
      "width": 320,
      "height": 180
     },
     "high": {
      "url": "https://i.ytimg.com/vi/Pn8yc_2TZJY/hqdefault.jpg",
      "width": 480,
      "height": 360
     },
     "standard": {
      "url": "https://i.ytimg.com/vi/Pn8yc_2TZJY/sddefault.jpg",
      "width": 640,
      "height": 480
     },
     "maxres": {
      "url": "https://i.ytimg.com/vi/Pn8yc_2TZJY/maxresdefault.jpg",
      "width": 1280,
      "height": 720
     }
    },
    "channelTitle": "Yale Center for Business and the Environment",
    "playlistId": "PLLYgCCZBPRXvc2SK4FLY16JNrIgioJWcq",
    "position": 13,
    "resourceId": {
     "kind": "youtube#video",
     "videoId": "Pn8yc_2TZJY"
    }
   }
  },
  {
   "kind": "youtube#playlistItem",
   "etag": "\"XI7nbFXulYBIpL0ayR_gDh3eu1k/GpFFA_yadtqiHB0VtpurmAwmXsc\"",
   "id": "UExMWWdDQ1pCUFJYdmMyU0s0RkxZMTZKTnJJZ2lvSldjcS4xMkVGQjNCMUM1N0RFNEUx",
   "snippet": {
    "publishedAt": "2016-03-11T19:07:52.000Z",
    "channelId": "UCPqZCejv5zOfuMr3prALzVA",
    "title": "Large scale landscape restoration: the investment case for ecological and regenerative farming",
    "description": "Paul McMahon from SLM Partners explores how the sustainability challenges of modern-day agriculture can be solved using ecological, regenerative farming systems that offer superior risk-adjusted returns on investments.",
    "thumbnails": {
     "default": {
      "url": "https://i.ytimg.com/vi/MtrL_7a6VMA/default.jpg",
      "width": 120,
      "height": 90
     },
     "medium": {
      "url": "https://i.ytimg.com/vi/MtrL_7a6VMA/mqdefault.jpg",
      "width": 320,
      "height": 180
     },
     "high": {
      "url": "https://i.ytimg.com/vi/MtrL_7a6VMA/hqdefault.jpg",
      "width": 480,
      "height": 360
     },
     "standard": {
      "url": "https://i.ytimg.com/vi/MtrL_7a6VMA/sddefault.jpg",
      "width": 640,
      "height": 480
     },
     "maxres": {
      "url": "https://i.ytimg.com/vi/MtrL_7a6VMA/maxresdefault.jpg",
      "width": 1280,
      "height": 720
     }
    },
    "channelTitle": "Yale Center for Business and the Environment",
    "playlistId": "PLLYgCCZBPRXvc2SK4FLY16JNrIgioJWcq",
    "position": 14,
    "resourceId": {
     "kind": "youtube#video",
     "videoId": "MtrL_7a6VMA"
    }
   }
  },
  {
   "kind": "youtube#playlistItem",
   "etag": "\"XI7nbFXulYBIpL0ayR_gDh3eu1k/ix4WScrmZU5M7DICCq-k-rUR_vI\"",
   "id": "UExMWWdDQ1pCUFJYdmMyU0s0RkxZMTZKTnJJZ2lvSldjcS4wOTA3OTZBNzVEMTUzOTMy",
   "snippet": {
    "publishedAt": "2016-03-04T21:52:07.000Z",
    "channelId": "UCPqZCejv5zOfuMr3prALzVA",
    "title": "Using New Technologies to Identify Landscape Scale Conservation and Restoration Priorities",
    "description": "Jeffrey Allenby, Director of Conservation Technology at the Chesapeake Conservancy, discusses the new high resolution datasets and web-based analysis tools that the Chesapeake Conservancy is developing. These tools streamline the efforts of conservation and restoration organizations, allowing them to quickly priortize efforts and model the potential benefits of projects.",
    "thumbnails": {
     "default": {
      "url": "https://i.ytimg.com/vi/r5UYNwrmtxk/default.jpg",
      "width": 120,
      "height": 90
     },
     "medium": {
      "url": "https://i.ytimg.com/vi/r5UYNwrmtxk/mqdefault.jpg",
      "width": 320,
      "height": 180
     },
     "high": {
      "url": "https://i.ytimg.com/vi/r5UYNwrmtxk/hqdefault.jpg",
      "width": 480,
      "height": 360
     },
     "standard": {
      "url": "https://i.ytimg.com/vi/r5UYNwrmtxk/sddefault.jpg",
      "width": 640,
      "height": 480
     },
     "maxres": {
      "url": "https://i.ytimg.com/vi/r5UYNwrmtxk/maxresdefault.jpg",
      "width": 1280,
      "height": 720
     }
    },
    "channelTitle": "Yale Center for Business and the Environment",
    "playlistId": "PLLYgCCZBPRXvc2SK4FLY16JNrIgioJWcq",
    "position": 15,
    "resourceId": {
     "kind": "youtube#video",
     "videoId": "r5UYNwrmtxk"
    }
   }
  },
  {
   "kind": "youtube#playlistItem",
   "etag": "\"XI7nbFXulYBIpL0ayR_gDh3eu1k/T_VSoAsuO_gTE0ErDpI34_wtJp8\"",
   "id": "UExMWWdDQ1pCUFJYdmMyU0s0RkxZMTZKTnJJZ2lvSldjcS41NkI0NEY2RDEwNTU3Q0M2",
   "snippet": {
    "publishedAt": "2015-05-26T19:51:23.000Z",
    "channelId": "UCPqZCejv5zOfuMr3prALzVA",
    "title": "Cultural Ecosystem Services: the Keys to Sustainability",
    "description": "During this webinar, Chan presents his research on building frameworks to conceptualize ecosystem services. With an emphasis on cultural ecosystem services, he highlights the importance of supporting ecosystem services to catalyze sustainability, as well as the requisite components of payments for ecosystem services to be effective at creating environmental returns.",
    "thumbnails": {
     "default": {
      "url": "https://i.ytimg.com/vi/PZpLrVa5jBc/default.jpg",
      "width": 120,
      "height": 90
     },
     "medium": {
      "url": "https://i.ytimg.com/vi/PZpLrVa5jBc/mqdefault.jpg",
      "width": 320,
      "height": 180
     },
     "high": {
      "url": "https://i.ytimg.com/vi/PZpLrVa5jBc/hqdefault.jpg",
      "width": 480,
      "height": 360
     },
     "standard": {
      "url": "https://i.ytimg.com/vi/PZpLrVa5jBc/sddefault.jpg",
      "width": 640,
      "height": 480
     },
     "maxres": {
      "url": "https://i.ytimg.com/vi/PZpLrVa5jBc/maxresdefault.jpg",
      "width": 1280,
      "height": 720
     }
    },
    "channelTitle": "Yale Center for Business and the Environment",
    "playlistId": "PLLYgCCZBPRXvc2SK4FLY16JNrIgioJWcq",
    "position": 16,
    "resourceId": {
     "kind": "youtube#video",
     "videoId": "PZpLrVa5jBc"
    }
   }
  },
  {
   "kind": "youtube#playlistItem",
   "etag": "\"XI7nbFXulYBIpL0ayR_gDh3eu1k/4lhiV4Kxu68BU1LEXThFH_iOdtk\"",
   "id": "UExMWWdDQ1pCUFJYdmMyU0s0RkxZMTZKTnJJZ2lvSldjcS4yODlGNEE0NkRGMEEzMEQy",
   "snippet": {
    "publishedAt": "2015-05-26T19:51:43.000Z",
    "channelId": "UCPqZCejv5zOfuMr3prALzVA",
    "title": "[Nature's Returns] Valuing Nature: Models of Ecosystem Valuation in Environmental Policy",
    "description": "Katie Arkema, senior scientist at the Natural Capital Project, delves into the models used in the Natural Capital Project, examining the approaches and research underlying model results. Using the case study of Belize's Coastal Zone Management Plan, Arkema details the potential of ecosystem valuation in guiding policy, furthering conservation while maintaining human well-being.",
    "thumbnails": {
     "default": {
      "url": "https://i.ytimg.com/vi/HHg-ybWCBiQ/default.jpg",
      "width": 120,
      "height": 90
     },
     "medium": {
      "url": "https://i.ytimg.com/vi/HHg-ybWCBiQ/mqdefault.jpg",
      "width": 320,
      "height": 180
     },
     "high": {
      "url": "https://i.ytimg.com/vi/HHg-ybWCBiQ/hqdefault.jpg",
      "width": 480,
      "height": 360
     },
     "standard": {
      "url": "https://i.ytimg.com/vi/HHg-ybWCBiQ/sddefault.jpg",
      "width": 640,
      "height": 480
     },
     "maxres": {
      "url": "https://i.ytimg.com/vi/HHg-ybWCBiQ/maxresdefault.jpg",
      "width": 1280,
      "height": 720
     }
    },
    "channelTitle": "Yale Center for Business and the Environment",
    "playlistId": "PLLYgCCZBPRXvc2SK4FLY16JNrIgioJWcq",
    "position": 17,
    "resourceId": {
     "kind": "youtube#video",
     "videoId": "HHg-ybWCBiQ"
    }
   }
  },
  {
   "kind": "youtube#playlistItem",
   "etag": "\"XI7nbFXulYBIpL0ayR_gDh3eu1k/q2XC2imQc1tZF-aat8K6giRn4fE\"",
   "id": "UExMWWdDQ1pCUFJYdmMyU0s0RkxZMTZKTnJJZ2lvSldjcS4wMTcyMDhGQUE4NTIzM0Y5",
   "snippet": {
    "publishedAt": "2015-05-26T19:51:58.000Z",
    "channelId": "UCPqZCejv5zOfuMr3prALzVA",
    "title": "Nature's Returns - Mainstreaming Natural Capital into Decision-Making",
    "description": "During this webinar, Gretchen Daily, senior fellow at Stanford University and co-founder of the Natural Capital Project, presents the Natural Capital Project (NatCap) and its practical, science-based approach towards ecosystem service valuation. Highlighting the overarching mission of NatCap and the tools developed to realize its vision, Daily showcases projects where NatCap's work has influenced decision-making around the world.",
    "thumbnails": {
     "default": {
      "url": "https://i.ytimg.com/vi/Z-fEtRV7HcE/default.jpg",
      "width": 120,
      "height": 90
     },
     "medium": {
      "url": "https://i.ytimg.com/vi/Z-fEtRV7HcE/mqdefault.jpg",
      "width": 320,
      "height": 180
     },
     "high": {
      "url": "https://i.ytimg.com/vi/Z-fEtRV7HcE/hqdefault.jpg",
      "width": 480,
      "height": 360
     },
     "standard": {
      "url": "https://i.ytimg.com/vi/Z-fEtRV7HcE/sddefault.jpg",
      "width": 640,
      "height": 480
     },
     "maxres": {
      "url": "https://i.ytimg.com/vi/Z-fEtRV7HcE/maxresdefault.jpg",
      "width": 1280,
      "height": 720
     }
    },
    "channelTitle": "Yale Center for Business and the Environment",
    "playlistId": "PLLYgCCZBPRXvc2SK4FLY16JNrIgioJWcq",
    "position": 18,
    "resourceId": {
     "kind": "youtube#video",
     "videoId": "Z-fEtRV7HcE"
    }
   }
  },
  {
   "kind": "youtube#playlistItem",
   "etag": "\"XI7nbFXulYBIpL0ayR_gDh3eu1k/5Fd2aWH5advlrqB9f2XkY-0ojJU\"",
   "id": "UExMWWdDQ1pCUFJYdmMyU0s0RkxZMTZKTnJJZ2lvSldjcS41MjE1MkI0OTQ2QzJGNzNG",
   "snippet": {
    "publishedAt": "2015-05-26T19:52:06.000Z",
    "channelId": "UCPqZCejv5zOfuMr3prALzVA",
    "title": "[Nature's Returns] Protecting Nature: Landscape Scale Conservation in the U.S,",
    "description": "In this webinar, Peter Howell discusses his work at the Open Space Institute, a conservation organization that focuses on landscape scale conservation throughout the Eastern United States. Through recent projects spearheaded by OSI, Howell illustrates the challenges and opportunities that landscape-scale conservation presents, and shares his insight on current trends regarding conservation in the United States.",
    "thumbnails": {
     "default": {
      "url": "https://i.ytimg.com/vi/xsLHmItQPIY/default.jpg",
      "width": 120,
      "height": 90
     },
     "medium": {
      "url": "https://i.ytimg.com/vi/xsLHmItQPIY/mqdefault.jpg",
      "width": 320,
      "height": 180
     },
     "high": {
      "url": "https://i.ytimg.com/vi/xsLHmItQPIY/hqdefault.jpg",
      "width": 480,
      "height": 360
     },
     "standard": {
      "url": "https://i.ytimg.com/vi/xsLHmItQPIY/sddefault.jpg",
      "width": 640,
      "height": 480
     },
     "maxres": {
      "url": "https://i.ytimg.com/vi/xsLHmItQPIY/maxresdefault.jpg",
      "width": 1280,
      "height": 720
     }
    },
    "channelTitle": "Yale Center for Business and the Environment",
    "playlistId": "PLLYgCCZBPRXvc2SK4FLY16JNrIgioJWcq",
    "position": 19,
    "resourceId": {
     "kind": "youtube#video",
     "videoId": "xsLHmItQPIY"
    }
   }
  }
 ]
}
